Étude du dataset : Video Games Sales with Ratings de Rush Kirubi
…
jeux_callOf <- data_tidy %>% 
  filter(Publisher == 'Activision' & grepl('call of duty', tolower(Name))) %>%
  filter(Name != 'Call of Duty Black Ops: Declassified' & Name != 'Call Of Duty 2: Big Red One' &
           Name != 'Call of Duty: Roads to Victory') %>%
  group_by(Name, Origin_of_the_Score, Year_of_Release) %>%
  summarise(mean_score = mean(Score)) %>%
  arrange(Year_of_Release)

jeux_callOf

## # A tibble: 24 × 4
## # Groups:   Name, Origin_of_the_Score [24]
##    Name                           Origin_of_the_Score Year_of_Release mean_score
##    <chr>                          <chr>                         <int>      <dbl>
##  1 Call of Duty: Finest Hour      Critic                         2004       74.3
##  2 Call of Duty: Finest Hour      User                           2004       81.3
##  3 Call of Duty 2                 Critic                         2005       87.5
##  4 Call of Duty 2                 User                           2005       82.5
##  5 Call of Duty 3                 Critic                         2006       81.3
##  6 Call of Duty 3                 User                           2006       69.3
##  7 Call of Duty 4: Modern Warfare Critic                         2007       88.8
##  8 Call of Duty 4: Modern Warfare User                           2007       80.5
##  9 Call of Duty: World at War     Critic                         2008       82  
## 10 Call of Duty: World at War     User                           2008       76.2
## # ℹ 14 more rows
…
Nous avons également voulu avoir un ordre d’idée de la diversité des
consoles sur lesquelles les jeux constituant notre dataset étaient
disponibles.

nombre_de_plateform_pour_un_meme_jeu <- data_tidy %>% 
   distinct(Name, Platform) %>%
   group_by(Name) %>%
   summarise(nb_plat = n())
 
nombre_de_plateform_pour_un_meme_jeu %>% arrange(desc(nb_plat))

## # A tibble: 4,425 × 2
##    Name                                      nb_plat
##    <chr>                                       <int>
##  1 LEGO Star Wars II: The Original Trilogy         8
##  2 Madden NFL 07                                   8
##  3 Harry Potter and the Order of the Phoenix       7
##  4 Madden NFL 08                                   7
##  5 Need for Speed Carbon                           7
##  6 Need for Speed: ProStreet                       7
##  7 Spider-Man 3                                    7
##  8 Terraria                                        7
##  9 The Sims 2                                      7
## 10 Tomb Raider: Legend                             7
## # ℹ 4,415 more rows
…
View(data_tidy %>% 
       filter(Origin_of_the_Score == 'User') %>%
       select(Publisher) %>%
       group_by(Publisher) %>% 
       summarise(nombre_jeux = n()) %>% 
       arrange(desc(nombre_jeux)))

data_filter %>% select(Publisher, Global_Sales) %>%
  group_by(Publisher) %>% 
  summarise(s = sum(Global_Sales), nombre_jeux = n()) %>% 
  arrange(desc(nombre_jeux))

## # A tibble: 270 × 3
##    Publisher                        s nombre_jeux
##    <chr>                        <dbl>       <int>
##  1 Electronic Arts               869.         945
##  2 Ubisoft                       340.         498
##  3 Activision                    536.         491
##  4 Sony Computer Entertainment   387.         315
##  5 THQ                           163.         307
##  6 Nintendo                      850.         293
##  7 Sega                          150.         287
##  8 Take-Two Interactive          350.         273
##  9 Konami Digital Entertainment  138.         246
## 10 Namco Bandai Games            122.         244
## # ℹ 260 more rows
…
